{
    "name": "com.venturestudios.power-logs.Tests",
    "rootNamespace": "",
    "references": [
        "GUID:726b4bbbd86a24c018593da9bfceb746",
        "GUID:0acc523941302664db1f4e527237feb3",
        "GUID:27619889b8ba8c24980f49ee34dbb44a"
    ],
    "includePlatforms": [
        "Editor"
    ],
    "excludePlatforms": [],
    "allowUnsafeCode": false,
    "overrideReferences": false,
    "precompiledReferences": [],
    "autoReferenced": true,
    "defineConstraints": [],
    "versionDefines": [],
    "noEngineReferences": false
}